﻿{
  "command": "!slots",
  "permission": "Everyone",
  "costs": 50,
  "rewardTwoSeperated": 50,
  "rewardTwoSame": 75,
  "rewardJackpot": 250,
  "rewardSuperJackpot": 750,
  "emoteList": "🤣,😄,😏,🙂,☀,😎,😴,😙,🙃",
  "superEmote": "🤔",
  "useCooldown": true,
  "cooldown": 10,
  "onCooldown": "$user, the machine is cooling down. (Time Left: $cds)",
  "userCooldown": 840,
  "onUserCooldown": "$user: You've used !slots recently and need to wait to avoid crippling addiction. (Time Left: $cds)",
  "responseNotEnoughPoints": "It seems $user doesn't have $cost $currency to play the game.",
  "responseLost": "$user pulls the lever and waits for the roll .... [ $slots ] You lost. ",
  "responseReroll": "$user pulls the lever and waits for the roll .... [ $slots ] You at least got your points back?!",
  "responseWon": "$user pulls the lever and waits for the roll .... [ $slots ] Even a small win is a win...",
  "responseJackpot": "$user pulls the lever and waits for the roll .... [ $slots ] Jackpot, well done!",
  "responseSuperJackpot": "$user pulls the lever and waits for the roll .... [  $slots ] SUPER JACKPOT!!!",
  "seperator": " •",
  "checkTwitchEmotes": false,
  "checkBTTVEmotes": false,
  "checkFFZEmotes": false,
  "ignoreEmoteCheck": true
}